robot logic/Untitled.vcd
$comment 
  OLS Java Client
$end
$date 
  Aug 24, 2016 9:16:14 PM
$end
$version 
  VCD exporter v1.1
$end
$timescale 
  1 ms
$end
$scope 
  module logic
$end
$var wire 1 ! Channel-0 $end
$var wire 1 " Channel-1 $end
$var wire 1 # Channel-2 $end
$var wire 1 $ Channel-3 $end
$var wire 1 % Channel-4 $end
$upscope $end
$enddefinitions $end
$dumpvars
x!
x"
x#
x$
x%
$end
#0
1!
1"
0#
0$
0%
#8
1#
1$
#28
0!
#30
1!
#42
0"
#46
1"
#76
0"
0$
#78
1"
#88
0!
#90
1!
#94
0"
#96
1"
#108
0!
#110
1!
#122
0#
#128
0!
#130
1!
#140
0"
#142
1"
#148
0!
#150
1!
#156
0"
#158
1"
#168
0!
#170
1!
#172
0"
#174
1"
#188
0!
#190
1!
#200
0"
#204
1"
#208
0!
#210
1!
#228
0!
#230
1!
#234
0"
#236
1"
#262
0"
#264
1"
#268
0!
#270
1!
#290
0!
#292
1!
#298
0"
#300
1"
#308
0!
#312
1!
#314
0"
#316
1"
#330
0!
#332
1!
#342
0"
#344
1"
#348
0!
#352
1!
#358
0"
#362
1"
#370
0!
#372
1!
#390
0!
#392
1!
#406
0"
#408
1"
#410
0!
#412
1!
#420
0"
#422
1"
#428
0!
#432
1!
#448
0!
#452
1!
#456
0"
#458
1"
#470
0!
#472
1!
#500
0"
#502
1"
#510
0!
#512
1!
#516
0"
#520
1"
#564
0"
#566
1"
#578
0"
#580
1"
#590
0!
#592
1!
#610
0!
#612
1!
#616
1#
1$
#626
0"
#628
1"
#630
0!
#632
1!
#640
0"
#642
1"
#650
0!
#652
1!
#658
0"
#660
1"
#670
0!
#672
1!
#674
0"
#678
1"
#690
0!
#692
1!
#704
0"
#706
1"
#722
0"
#724
1"
#736
0"
#740
1"
0$
#750
0!
#752
1!
#768
0"
#770
1"
#772
0!
#774
1!
#784
0"
#786
1"
#790
0!
#794
1!
#812
0!
#814
1!
#816
0"
#818
1"
#830
0!
#834
1!
#852
0!
#854
1!
#862
0"
0#
#864
1"
#872
0!
#874
1!
#880
0"
#882
1"
#892
0!
#894
1!
0"
#898
1"
#910
0!
#914
1!
#926
0"
#928
1"
#930
0!
#934
1!
#942
0"
#944
1"
#952
0!
#954
1!
#956
0"
#960
1"
#986
0"
#990
1"
#992
0!
#994
1!
#1020
0"
#1022
1"
#1038
0"
#1040
1"
#1072
0!
#1074
1!
#1084
0"
#1086
1"
#1092
0!
#1094
1!
#1100
0"
#1102
1"
#1112
0!
#1114
1!
0"
#1116
1"
#1132
0!
#1134
1!
#1146
0"
#1148
1"
#1152
0!
#1154
1!
#1172
0!
#1174
1!
#1178
0"
#1180
1"
#1206
0"
#1208
1"
#1232
0!
#1236
1!
#1240
0"
#1244
1"
#1254
0!
#1256
1!
#1258
0"
#1260
1"
#1272
0!
#1276
1!
#1286
0"
#1288
1"
#1294
0!
#1296
1!
#1304
0"
#1306
1"
#1312
0!
#1316
1!
#1318
0"
#1320
1"
#1334
0!
#1336
1!
#1350
0"
#1352
1"
#1354
0!
#1356
1!
#1364
0"
#1366
1"
#1374
0!
#1376
1!
#1392
0!
#1396
1!
#1398
0"
#1402
1"
#1412
0!
#1416
1!
#1426
0"
#1430
1"
#1434
0!
#1436
1!
#1444
0"
#1446
1"
#1462
0"
#1464
1"
#1474
0!
#1476
1!
0"
#1478
1"
#1508
0"
#1510
1"
#1522
0"
#1526
1"
#1554
0!
#1556
1!
#1568
0"
#1572
1"
#1574
0!
#1576
1!
#1584
0"
#1588
1"
#1594
0!
#1596
1!
#1602
0"
#1604
1"
#1614
0!
#1616
1!
#1620
0"
#1622
1"
#1634
0!
#1636
1!
#1648
0"
#1650
1"
#1654
0!
#1656
1!
#1666
0"
#1668
1"
#1682
0"
#1684
1"
#1710
0"
#1714
0!
1"
#1716
1!
#1726
0"
#1730
1"
#1736
0!
#1738
1!
#1742
0"
#1746
1"
#1754
0!
#1758
1!
#1760
0"
#1762
1"
#1776
0!
#1778
1!
#1788
0"
#1790
1"
#1794
0!
#1798
1!
#1806
0"
#1808
1"
#1816
0!
#1818
1!
#1824
0"
#1826
1"
#1836
0!
#1838
1!
#1840
0"
#1842
1"
#1856
0!
#1858
1!
#1868
0"
#1872
1"
#1874
0!
#1878
1!
#1884
0"
#1888
1"
#1894
0!
#1898
1!
#1900
0"
#1904
1"
#1916
0!
#1918
1!
#1932
0"
#1934
1"
#1946
0"
#1948
1"
#1956
0!
#1958
1!
#1964
0"
#1966
1"
#1982
0"
#1984
1"
#2008
0"
#2010
1"
#2016
0!
#2018
1!
#2026
0"
#2030
1"
#2036
0!
#2038
1!
#2042
0"
#2046
1"
#2056
0!
#2058
1!
0"
#2060
1"
#2076
0!
#2078
1!
#2090
0"
#2092
1"
#2096
0!
#2098
1!
#2104
0"
#2106
1"
#2116
0!
#2118
1!
#2122
0"
#2124
1"
#2136
0!
#2138
1!
#2166
0"
#2168
1"
#2176
0!
#2178
1!
#2184
0"
#2186
1"
#2196
0!
#2200
1!
#2202
0"
#2204
1"
#2218
0!
#2220
1!
#2230
0"
#2232
1"
#2236
0!
#2240
1!
#2248
0"
#2250
1"
#2258
0!
#2260
1!
#2262
0"
#2264
1"
#2276
0!
#2280
1!
#2294
0"
#2296
1"
#2298
0!
#2300
1!
#2318
0!
#2320
1!
#2324
0"
#2326
1"
#2338
0!
#2340
1!
#2356
0!
#2360
1!
#2376
0!
#2380
1!
#2388
0"
#2390
1"
#2398
0!
#2400
1!
#2406
0"
#2408
1"
#2420
0"
#2422
1"
#2438
0!
#2440
1!
#2450
0"
#2454
1"
#2468
0"
#2470
1"
#2482
0"
#2486
1"
#2514
0"
#2516
1"
#2518
0!
#2520
1!
#2538
0!
#2540
1!
#2546
0"
#2548
1"
#2558
0!
#2560
1!
#2564
0"
#2566
1"
#2578
0!
#2580
1!
#2592
0"
#2594
1"
#2598
0!
#2600
1!
#2608
0"
#2612
1"
#2618
0!
#2620
1!
#2626
0"
#2628
1"
#2638
0!
#2640
1!
#2654
0"
#2658
1"
#2672
0"
#2674
1"
#2678
0!
#2680
1!
#2700
0!
#2702
1!
#2704
0"
#2706
1"
#2718
0!
#2722
1!
#2732
0"
#2734
1"
#2740
0!
#2742
1!
#2750
0"
#2752
1"
#2758
0!
#2762
1!
#2766
0"
#2770
1"
#2778
0!
#2782
1!
#2784
0"
#2786
1"
#2800
0!
#2802
1!
#2812
0"
#2816
1"
#2820
0!
#2822
1!
#2830
0"
#2832
1"
#2838
0!
#2842
1!
#2858
0!
#2862
1!
#2876
0"
#2878
1"
#2880
0!
#2882
1!
#2908
0"
#2910
1"
#2920
0!
#2922
1!
#2924
0"
#2928
1"
#2940
0!
#2942
1!
#2952
0"
#2954
1"
#2970
0"
#2972
1"
#2988
0"
#2990
1"
#3000
0!
#3002
1!
#3020
0!
#3022
1!
#3034
0"
#3036
1"
#3040
0!
#3042
1!
#3060
0!
#3062
1!
#3080
0!
#3082
1!
#3096
0"
#3098
1"
#3110
0"
#3112
1"
#3120
0!
#3122
1!
#3128
0"
#3130
1"
#3146
0"
#3148
1"
#3160
0!
#3162
1!
#3174
0"
#3176
1"
#3182
0!
#3184
1!
#3192
0"
#3194
1"
#3200
0!
#3204
1!
#3222
0!
#3224
1!
#3236
0"
#3240
1"
#3242
0!
#3244
1!
#3254
0"
#3256
1"
#3260
0!
#3264
1!
#3268
0"
#3270
1"
#3282
0!
#3284
1!
#3286
0"
#3288
1"
#3302
0!
#3304
1!
#3320
0!
#3324
1!
#3332
0"
#3334
1"
#3340
0!
#3344
1!
#3350
0"
#3352
1"
#3362
0!
#3364
1!
#3366
0"
#3368
1"
#3394
0"
#3398
1"
#3412
0"
#3414
1"
#3422
0!
#3424
1!
#3458
0"
#3460
1"
#3482
0!
#3484
1!
#3490
0"
#3492
1"
#3502
0!
#3504
1!
#3508
0"
#3510
1"
#3522
0!
#3524
1!
#3542
0!
#3544
1!
#3554
0"
#3556
1"
#3562
0!
#3564
1!
#3570
0"
#3572
1"
#3598
0"
#3600
1"
#3602
0!
#3604
1!
#3616
0"
#3618
1"
#3642
0!
#3644
1!
#3648
0"
#3650
1"
#3664
0!
#3666
1!
#3678
0"
#3680
1"
#3684
0!
#3686
1!
#3702
0!
#3706
1!
#3712
0"
#3714
1"
#3724
0!
#3726
1!
#3728
0"
#3730
1"
#3742
0!
#3746
1!
#3756
0"
#3758
1"
#3764
0!
#3766
1!
#3774
0"
#3776
1"
#3784
0!
#3786
1!
#3788
0"
#3792
1"
#3802
0!
#3806
1!
#3820
0"
#3822
0!
1"
#3826
1!
#3836
0"
#3838
1"
#3842
0!
#3846
1!
#3864
0!
#3866
1!
#3868
0"
#3870
1"
#3904
0!
#3906
1!
#3914
0"
#3916
1"
#3932
0"
#3934
1"
#3946
0"
#3950
1"
#3978
0"
#3980
1"
#3984
0!
#3986
1!
#3994
0"
#3996
1"
#4004
0!
#4006
1!
#4024
0!
#4026
1!
#4038
0"
#4042
1"
#4044
0!
#4046
1!
#4072
0"
#4074
1"
#4084
0!
#4086
1!
#4090
0"
#4092
1"
#4104
0!
#4106
1!
#4136
0"
#4138
1"
#4144
0!
#4146
1!
#4152
0"
#4154
1"
#4166
0!
#4168
1!
#4180
0"
#4182
1"
#4184
0!
#4188
1!
#4196
0"
#4200
1"
#4206
0!
#4208
1!
#4224
0!
#4228
1!
#4230
0"
#4232
1"
#4244
0!
#4248
1!
#4258
0"
#4260
1"
#4266
0!
#4268
1!
#4286
0!
#4288
1!
#4294
0"
#4296
1"
#4304
0!
#4308
1!
0"
#4312
1"
#4324
0!
#4328
1!
#4338
0"
#4340
1"
#4346
0!
#4348
1!
#4354
0"
#4358
1"
#4386
0!
#4388
1!
#4402
0"
#4404
1"
#4406
0!
#4408
1!
#4416
0"
#4418
1"
#4450
0"
#4452
1"
#4466
0!
#4468
1!
#4478
0"
#4482
1"
#4486
0!
#4488
1!
#4496
0"
#4498
1"
#4506
0!
#4508
1!
#4512
0"
#4516
1"
#4526
0!
#4528
1!
#4542
0"
#4544
1"
#4546
0!
#4548
1!
#4560
0"
#4562
1"
#4566
0!
#4568
1!
#4586
0!
#4588
1!
#4620
0"
#4624
1"
#4626
0!
#4628
1!
#4636
0"
#4640
1"
#4648
0!
#4650
1!
#4654
0"
#4656
1"
#4666
0!
#4670
1!
#4672
0"
#4674
1"
#4686
0!
#4690
1!
#4700
0"
#4702
1"
#4708
0!
#4710
1!
#4718
0"
#4720
1"
#4726
0!
#4730
1!
#4734
0"
#4736
1"
#4748
0!
#4750
1!
#4764
0"
#4766
1"
#4768
0!
#4770
1!
#4778
0"
#4782
1"
#4786
0!
#4790
1!
#4794
0"
#4798
1"
#4806
0!
#4810
1!
#4812
0"
#4814
1"
#4828
0!
#4830
1!
#4840
0"
#4842
1"
#4858
0"
#4860
1"
#4876
0"
#4878
1"
#4888
0!
#4890
1!
#4892
0"
#4894
1"
#4920
0"
#4924
1"
#4936
0"
#4940
1"
#4948
0!
#4950
1!
#4952
0"
#4954
1"
#4968
0!
#4970
1!
#4984
0"
#4986
1"
#4988
0!
#4990
1!
#5008
0!
#5010
1!
#5016
0"
#5018
1"
#5028
0!
#5030
1!
#5034
0"
#5036
1"
#5048
0!
#5050
1!
#5060
0"
#5064
1"
#5068
0!
#5070
1!
#5080
0"
#5082
1"
#5094
0"
#5098
1"
#5108
0!
#5110
1!
#5124
0"
#5126
1"
#5130
0!
#5132
1!
#5142
0"
#5144
1"
#5150
0!
#5152
1!
#5168
0!
#5172
1!
#5174
0"
#5176
1"
#5190
0!
#5192
1!
#5204
0"
#5206
1"
#5208
0!
#5212
1!
#5218
0"
#5222
1"
#5230
0!
#5232
1!
#5250
0!
#5252
1!
0"
#5256
1"
#5268
0!
#5272
1!
#5282
0"
#5284
1"
#5288
0!
#5292
1!
#5300
0"
#5302
1"
#5308
0!
#5312
1!
#5330
0!
#5332
1!
#5344
0"
#5348
1"
#5362
0"
#5364
1"
#5370
0!
#5372
1!
#5376
0"
#5380
1"
#5394
0"
#5396
1"
#5430
0!
#5432
1!
#5440
0"
#5442
1"
#5450
0!
#5452
1!
#5458
0"
#5460
1"
#5470
0!
#5472
1!
#5486
0"
#5488
1"
#5490
0!
#5492
1!
#5502
0"
#5506
1"
#5510
0!
#5512
1!
#5520
0"
#5522
1"
#5530
0!
#5532
1!
#5534
0"
#5538
1"
#5550
0!
#5552
1!
#5566
0"
#5568
1"
#5598
0"
#5600
1"
#5610
0!
#5612
1!
#5616
0"
#5618
1"
#5632
0!
#5634
1!
#5650
0!
#5654
1!
#5660
0"
#5664
1"
#5672
0!
#5674
1!
#5678
0"
#5680
1"
#5690
0!
#5694
1!
#5706
0"
#5708
1"
#5712
0!
#5714
1!
#5724
0"
#5726
1"
#5728
1#
1$
#5732
0!
#5734
1!
#5752
0!
#5754
1!
#5756
0"
#5758
1"
#5770
0!
#5774
1!
#5790
0!
#5794
1!
#5812
0!
#5814
1!
#5818
0"
#5822
1"
#5836
0"
#5838
1"
#5852
0!
0$
#5854
1!
#5864
0"
#5866
1"
#5882
0"
#5884
1"
#5928
0"
#5930
1"
#5932
0!
#5934
1!
#5952
0!
#5954
1!
#5972
0!
#5974
1!
#5976
0"
0#
#5980
1"
#5992
0!
#5994
1!
#6012
0!
#6014
1!
#6022
0"
#6024
1"
#6040
0"
#6042
1"
#6052
0!
#6054
1!
#6068
0"
#6070
1"
#6086
0"
#6088
1"
#6092
0!
#6094
1!
#6114
0!
#6116
1!
#6132
0!
#6136
1!
#6148
0"
#6150
1"
#6152
1#
1$
#6154
0!
#6156
1!
#6174
0!
#6176
1!
#6180
0"
#6182
1"
#6192
0!
#6196
1!
#6198
0"
#6200
1"
#6214
0!
#6216
1!
#6226
0"
#6228
1"
#6234
0!
#6236
1!
#6244
0"
#6246
1"
#6252
0!
#6256
1!
#6260
0"
#6262
1"
#6272
0!
#6276
1!
#6284
0$
#6290
0"
#6292
1"
#6294
0!
#6296
1!
#6306
0"
#6308
1"
#6334
0!
#6336
1!
#6338
0"
#6340
1"
#6354
0!
#6356
1!
#6366
0#
#6384
0"
#6386
1"
#6402
0"
#6404
1"
#6414
0!
#6416
1!
#6428
0"
#6430
1"
#6434
0!
#6436
1!
#6454
0!
#6456
1!
#6464
0"
#6466
1"
#6474
0!
#6476
1!
#6494
0!
#6496
1!
#6510
0"
#6512
1"
#6524
0"
#6526
1"
#6534
0!
#6536
1!
#6542
0"
#6544
1"
#6560
0"
#6562
1"
#6574
0!
#6576
1!
#6586
0"
#6588
1"
#6596
0!
#6598
1!
#6604
0"
#6606
1"
#6616
0!
#6618
1!
#6622
0"
#6624
1"
#6634
0!
#6638
1!
#6650
0"
#6652
1"
#6656
0!
#6658
1!
#6668
0"
#6670
1"
#6674
0!
#6678
1!
#6682
0"
#6684
1"
#6696
0!
#6698
1!
#6716
0!
#6718
1!
#6730
0"
#6732
1"
#6734
0!
#6738
1!
#6744
0"
#6746
1"
#6754
0!
#6758
1!
#6762
0"
#6764
1"
#6774
0!
#6778
1!
0"
#6782
1"
#6796
0!
#6798
1!
#6808
0"
#6810
1"
#6826
0"
#6828
1"
#6836
0!
#6838
1!
#6840
0"
#6844
1"
#6872
0"
#6874
1"
#6888
0"
#6890
1"
#6896
0!
#6898
1!
#6902
0"
#6904
1"
#6916
0!
#6918
1!
#6920
0"
#6922
1"
#6936
0!
#6938
1!
#6956
0!
#6958
1!
#6966
0"
#6968
1"
#6976
0!
#6978
1!
#6984
0"
#6986
1"
#7016
0!
#7018
1!
#7028
0"
#7032
1"
#7046
0"
#7048
1"
#7056
0!
#7058
1!
#7060
0"
#7064
1"
#7076
0!
#7080
1!
#7092
0"
#7094
1"
#7098
0!
#7100
1!
#7106
0"
#7108
1"
#7116
0!
#7120
1!
#7124
0"
#7126
1"
#7138
0!
#7140
1!
#7142
0"
#7144
1"
#7156
0!
#7160
1!
#7178
0!
#7180
1!
#7186
0"
#7190
1"
#7198
0!
#7200
1!
#7204
0"
#7206
1"
#7216
0!
#7220
1!
#7232
0"
#7234
1"
#7236
0!
#7240
1!
#7250
0"
#7252
1"
#7256
0!
#7260
1!
#7264
0"
#7266
1"
#7278
0!
#7280
1!
#7282
0"
#7284
1"
#7310
0"
#7312
1"
#7318
0!
#7320
1!
#7344
0"
#7348
1"
#7372
0"
#7376
1"
#7378
0!
#7380
1!
#7390
0"
#7392
1"
#7398
0!
#7400
1!
#7408
0"
#7410
1"
#7418
0!
#7420
1!
#7422
0"
#7424
1"
#7438
0!
#7440
1!
#7454
0"
#7456
1"
#7458
0!
#7460
1!
#7498
0!
#7500
1!
#7502
0"
#7506
1"
#7530
0"
#7534
1"
#7538
0!
#7540
1!
#7548
0"
#7550
1"
#7558
0!
#7562
1!
#7566
0"
#7568
1"
#7580
0!
#7582
1!
#7594
0"
#7596
1"
#7598
0!
#7602
1!
#7612
0"
#7614
1"
#7620
0!
#7622
1!
#7628
0"
#7630
1"
#7638
0!
#7642
1!
0"
#7644
1"
#7660
0!
#7662
1!
#7672
0"
#7676
1"
#7680
0!
#7682
1!
#7688
0"
#7692
1"
#7700
0!
#7702
1!
#7706
0"
#7708
1"
#7718
0!
#7722
1!
#7724
0"
#7726
1"
#7738
0!
#7742
1!
#7752
0"
#7754
1"
#7760
0!
#7762
1!
#7770
0"
#7772
1"
#7786
0"
#7788
1"
#7800
0!
#7802
1!
#7814
0"
#7818
1"
#7830
0"
#7834
1"
#7846
0"
#7850
1"
#7860
0!
#7862
1!
#7864
0"
#7866
1"
#7880
0!
#7882
1!
#7892
0"
#7894
1"
#7900
0!
#7902
1!
#7910
0"
#7912
1"
#7920
0!
#7922
1!
#7928
0"
#7930
1"
#7940
0!
#7942
1!
#7954
0"
#7956
1"
#7972
0"
#7976
1"
#7980
0!
#7982
1!
#7990
0"
#7992
1"
#8004
0"
#8008
1"
#8020
0!
#8022
1!
#8036
0"
#8038
1"
#8040
0!
#8044
1!
#8050
0"
#8052
1"
#8062
0!
#8064
1!
#8068
0"
#8070
1"
#8080
0!
#8084
1!
#8086
0"
#8088
1"
#8102
0!
#8104
1!
#8112
0"
#8114
1"
#8120
0!
#8124
1!
#8130
0"
#8132
1"
#8142
0!
#8144
1!
#8148
0"
#8150
1"
#8162
0!
#8164
1!
#8176
0"
#8178
1"
#8182
0!
#8184
1!
